{
  "res": {
      "className": "RollPaperSensorStatus",
      "byte": 17,
      "bits": "00010001",
      "statuses": [
          {
              "bit": 0,
              "value": 1,
              "label": "Fixed",
              "status": "ok"
          },
          {
              "bit": 1,
              "value": 0,
              "label": "Fixed",
              "status": "ok"
          },
          {
              "bit": "2,3",
              "value": "00",
              "label": "Roll paper near-end sensor: paper adequate",
              "status": "ok"
          },
          {
              "bit": 4,
              "value": 1,
              "label": "Fixed",
              "status": "ok"
          },
          {
              "bit": "5,6",
              "value": "00",
              "label": "Roll paper end sensor: paper present",
              "status": "ok"
          },
          {
              "bit": 7,
              "value": 0,
              "label": "Fixed",
              "status": "ok"
          },
          {
              "bit": 8,
              "label": "Fixed",
              "status": "ok"
          }
      ]
  }
}